
<svg xmlns="http://www.w3.org/2000/svg" >
	<symbol id="burgericon" viewBox="0 0 20 20" >
		<path d="M15.7,6.4H4.3C3.9,6.4,3.5,6,3.5,5.5s0.4-0.8,0.8-0.8h11.4c0.5,0,0.8,0.4,0.8,0.8S16.1,6.4,15.7,6.4z"/>
		<path d="M15.7,10.8H4.3c-0.5,0-0.8-0.4-0.8-0.8c0-0.5,0.4-0.8,0.8-0.8h11.4c0.5,0,0.8,0.4,0.8,0.8C16.5,10.5,16.1,10.8,15.7,10.8z"
			/>
		<path d="M15.7,15.3H4.3c-0.5,0-0.8-0.4-0.8-0.8c0-0.5,0.4-0.8,0.8-0.8h11.4c0.5,0,0.8,0.4,0.8,0.8C16.5,14.9,16.1,15.3,15.7,15.3z"
			/>
	</symbol>
</svg>
