
<svg xmlns="http://www.w3.org/2000/svg">
<symbol  id="phonicon" viewBox="0 0 20 20">

		<path class="st0" d="M18.3,4.3c0,0.5-0.1,1-0.2,1.5c-0.3,1.1-0.8,2.1-1.3,3c-0.7,1.3-1.6,2.4-2.6,3.5c-0.9,1-1.9,1.9-2.9,2.7
			c-0.6,0.5-1.3,0.9-1.9,1.3c-0.7,0.4-1.5,0.8-2.3,1.1c-0.5,0.2-1,0.3-1.5,0.4c-0.5,0.1-1,0.1-1.4,0c-0.3,0-0.7-0.2-0.9-0.4
			C3,17,2.6,16.6,2.2,16.2C2,16,1.8,15.7,1.7,15.3c-0.1-0.4-0.1-0.8,0.1-1.2c0.3-0.6,0.8-0.9,1.3-1.3c0.4-0.3,0.8-0.6,1.3-0.7
			c0.6-0.2,1.2-0.1,1.7,0.3c0.3,0.2,0.5,0.5,0.8,0.7c0.4,0.4,0.7,0.3,1.1,0.2c0.9-0.3,1.5-0.9,2.2-1.5c0.9-0.8,1.8-1.7,2.6-2.6
			c0.4-0.5,0.8-1,1.1-1.7c0.2-0.6,0.2-0.9-0.3-1.3c-0.3-0.3-0.6-0.6-0.9-1c-0.2-0.3-0.2-0.7-0.1-1c0.2-0.7,0.6-1.2,1-1.7
			c0.3-0.4,0.6-0.7,1-1c0.4-0.3,0.8-0.3,1.2-0.2c0.4,0.1,0.7,0.3,0.9,0.5c0.4,0.4,0.8,0.8,1.2,1.2c0.2,0.3,0.4,0.6,0.4,0.9
			C18.3,3.9,18.3,4.1,18.3,4.3z"/>
	</symbol>
</svg>
