
<svg xmlns="http://www.w3.org/2000/svg">
<symbol id="hificon" viewBox="0 0 54.1 74.5">

	<path class="st0" d="M27.1,36.9C18.8,36.9,12,43.7,12,52c0,8.3,6.8,15.1,15.1,15.1c8.3,0,15.1-6.8,15.1-15.1
	C42.1,43.7,35.4,36.9,27.1,36.9z M27.1,65.1C19.8,65.1,14,59.2,14,52c0-7.2,5.9-13.1,13.1-13.1c7.2,0,13.1,5.9,13.1,13.1
	C40.2,59.2,34.3,65.1,27.1,65.1z"/>
	<circle class="st0" cx="27.1" cy="19.7" r="4.5"/>
	<circle class="st0" cx="27.1" cy="52" r="6.2"/>
	<path class="st0" d="M46.3,0H7.8C3.5,0,0,3.5,0,7.8v58.8c0,4.3,3.5,7.8,7.8,7.8h38.5c4.3,0,7.8-3.5,7.8-7.8V7.8
	C54.1,3.5,50.6,0,46.3,0z M27.1,6.6c7.2,0,13.1,5.9,13.1,13.1c0,7.2-5.9,13.1-13.1,13.1c-7.2,0-13.1-5.9-13.1-13.1
	C14,12.5,19.8,6.6,27.1,6.6z M27.1,68.8c-9.3,0-16.8-7.5-16.8-16.8s7.5-16.8,16.8-16.8c9.3,0,16.8,7.5,16.8,16.8
	S36.3,68.8,27.1,68.8z"/>
	<path class="st0" d="M27.1,28.4c-4.8,0-8.7-3.9-8.7-8.7c0-4.8,3.9-8.7,8.7-8.7c4.8,0,8.7,3.9,8.7,8.7
		C35.7,24.5,31.9,28.4,27.1,28.4z M27.1,12.8c-3.8,0-6.9,3.1-6.9,6.9c0,3.8,3.1,6.9,6.9,6.9c3.8,0,6.9-3.1,6.9-6.9
		C34,15.9,30.9,12.8,27.1,12.8z"/>
		</symbol>
</svg>
