<?xml version="1.0" encoding="utf-8"?>
<!-- Generator: Adobe Illustrator 21.1.0, SVG Export Plug-In . SVG Version: 6.00 Build 0)  -->
<svg version="1.1" id="Calque_1" xmlns="http://www.w3.org/2000/svg" xmlns:xlink="http://www.w3.org/1999/xlink" x="0px" y="0px"
	 viewBox="0 0 20 20" style="enable-background:new 0 0 20 20;" xml:space="preserve">
<style type="text/css">
	.st0{fill:#010202;}
</style>
<g>
	<polygon class="st0" points="4.6,16.7 12.2,10.7 10.8,9.3 9.3,7.8 3.3,15.4 	"/>
	<g>
		<path class="st0" d="M16.3,8.4c0.8-1.3,0.6-3-0.5-4.1c-1.1-1.1-2.8-1.3-4.1-0.5L16.3,8.4z"/>
		<path class="st0" d="M10.6,4.6C10.1,5.3,9.9,6.2,10,7l3,3c0.9,0.1,1.8-0.1,2.5-0.7L10.6,4.6z"/>
	</g>
</g>
</svg>
