<?xml version="1.0" encoding="utf-8"?>
<!-- Generator: Adobe Illustrator 21.1.0, SVG Export Plug-In . SVG Version: 6.00 Build 0)  -->
<svg version="1.1" id="Calque_1" xmlns="http://www.w3.org/2000/svg" xmlns:xlink="http://www.w3.org/1999/xlink" x="0px" y="0px"
	 viewBox="0 0 20 20" style="enable-background:new 0 0 20 20;" xml:space="preserve">
<style type="text/css">
	.st0{fill:#010202;}
</style>
<g id="_x38_6zQ8Y.tif_11_">
	<g>
		<g>
			<path class="st0" d="M3.6,16.6c0.5-1.2,1-2.3,1.5-3.5c0.1-0.2,0.2-0.5,0.4-0.6C7.7,10.2,10,8,12.3,5.7c0.1-0.1,0.1-0.1,0.1-0.1
				c0.9,0.9,1.9,1.9,2.8,2.8c-0.1,0.1-0.2,0.3-0.4,0.4c-2.1,2.1-4.2,4.2-6.3,6.3c-0.3,0.3-0.7,0.5-1.1,0.7c-1,0.4-2,0.8-3,1.2
				c-0.3,0.1-0.6,0-0.9,0C3.6,16.9,3.6,16.7,3.6,16.6z M5.9,13.2C5.6,14,5.3,14.6,5,15.3c-0.1,0.3,0.1,0.7,0.5,0.5
				c0.7-0.3,1.4-0.6,2.1-0.8C7,14.4,6.5,13.8,5.9,13.2z"/>
			<path class="st0" d="M15.8,2.9c0.5,0.4,1.1,0.7,1.6,1.2c0.9,1,0.8,1.6-0.3,2.4c-0.9-0.9-1.8-1.8-2.8-2.8c0.3-0.2,0.7-0.5,1-0.8
				C15.4,2.9,15.6,2.9,15.8,2.9z"/>
			<path class="st0" d="M16.4,7.2c-0.2,0.2-0.4,0.4-0.6,0.6c-1-1-1.9-1.9-2.8-2.8c0.2-0.2,0.4-0.4,0.6-0.6
				C14.6,5.3,15.5,6.3,16.4,7.2z"/>
		</g>
	</g>
</g>
</svg>
